
!CONFIGURATION: 'com.ti.ccstudio.buildDefinitions.TMS470.Debug.1024520062' [Thu Aug 30 14:20:38 CEST 2018]

	!TOOL: 'com.ti.ccstudio.buildDefinitions.TMS470_18.1.exe.compilerDebug.1153032923'

		!NOTE: Deprecated build flag '--float_support=vfplib' was migrated to '--float_support=none'.

